{ "timeline":
    {
        "startDate":"1995,6,1",
        "headline":"Einleitung",
        "type":"default",
		"text":"Hier finden Sie meine Erfahrungen in einer zeitlichen Ansicht. Einige Ausbildungen sind zum Vergleich auch eingefügt. Einige Bilder und Videos in der Timeline werden nur mit einer aktiven Internetverbindung dargestellt. <h5>Navigation</h5>Sie können sich im unteren Teil per ziehen mit der Maus \"in der Zeit bewegen\" und sehen die Dauer des Ereignisses als blauen Balken, wenn Sie es auswählen. Auch die Details werden durch das Auswählen eines Events sichtbar. Sie können auch mit den Pfeiltasten auf Ihrer Tastatur navigieren.",
		
        "date": [
                                        {
                "startDate":"1995,6,1",
				"endDate":"2001,6,27",
                "headline":"Grundschule Neufeld",
                "text":"<p>Die 1-6.e Klasse der ganz normalen Schule.</p>",
                "asset":
                {
                    "media":"http://www.otto-bennemann-schule.de/cms/upload/bilder/404-monster-classrom-450px.png",
                    "credit":"http://otto-bennemann-schule.de",
                    "caption":""
                }
            },
                                        {
                "startDate":"1997,1,1",
                "headline":"Erste Begegnung mit Computer",
                "text":"<p>Den ersten Computer, den mein Vater sich angeschafft hat - hat mich von Anfang an fasziniert. Ich war damals 9 Jahre alt.</p>",
                "asset":
                {
                    "media":"http://upload.wikimedia.org/wikipedia/de/6/6c/Wfw.PNG",
                    "credit":"Wikipedia",
                    "caption":""
                }
            },
                {
                "startDate":"1998,2,16",
				"endDate":"1999,6,27",
                "headline":"Erster Computer",
                "text":"<p>Windows 3.1, 20 Disketten für das System und eine 20 Mb Festplatte. Bevor ich das Gerät bekam, musste ich es mit meinem älteren Halbbruder voneinander nehmen und wieder zusammensetzen. Dies war die Forderung meiner Eltern - dem bin ich dankbar.</p>",
                "asset":
                {
                    "media":"http://www.ohgizmo.com/wp-content/uploads/2007/10/sky_puter5.jpg",
                    "credit":"http://www.ohgizmo.com/2007/10/18/deconstructed-computer-case-mod",
                    "caption":""
                }
            },

                                        {
                "startDate":"2001,6,1",
				"endDate":"2004,6,27",
                "headline":"Oberstufenschule Strättligen",
                "text":"<p>Die 7-9.e Klasse der ganz normalen Schule.</p>",
                "asset":
                {
                    "media":"http://www.24gb.de/Gallery/schule/und_wegen_so_eines_kleinen_fehlers_bestellen_sie_mich_extra_in_die_schule.gif",
                    "credit":"http://24gb.de",
                    "caption":""
                }
            },
                                                    {
                "startDate":"2004,6,1",
				"endDate":"2005,6,27",
                "headline":"10.es Schuljahr",
                "text":"<p>Das 10.e Schuljahr habe ich zusätzlich gemacht.</p>",
                "asset":
                {
                    "media":"http://www.aarauinfo.ch/bilder/02_wohnen_arbeiten/03_bildung_wissenschaft/symbol_schule.jpg",
                    "credit":"http://www.aarauinfo.ch",
                    "caption":""
                }
            },
                            {
                "startDate":"1999,6,29",
				"endDate":"2005,6,27",
                "headline":"Windows-Phase",
                "text":"<p>Regedit, cmd, Bluescreens und erste Genuine-Produkte. Windows 95 bis XP war eine interessante Zeit - es gab immer Fehler zu flicken.</p>",
                "asset":
                {
                    "media":"http://upload.wikimedia.org/wikipedia/de/a/a2/Win98SE_Bildschirmausdruck.png",
                    "credit":"Wikipedia",
                    "caption":""
                }
            },
            
                                        {
                "startDate":"2004,3,15",
				"endDate":"2005,6,27",
                "headline":"Erster Code",
                "text":"<p>Das erste \"Hello World\", welches ich schrieb, war in Perl. Ich entwickelte ebenfalls sehr einfache Programme damit. Danach wechselte ich zu PHP, was mir aufgrund der ähnlichen Syntax leicht viel.</p>",
                "asset":
                {
                    "media":"http://developer.asustor.com/uploadIcons/0020_999_1373967199_perl_256.png",
                    "credit":"http://developer.asustor.com/",
                    "caption":""
                }
            },
                                        {
                "startDate":"2004,6,29",
				"endDate":"2006,6,27",
                "headline":"Linux-kennenlern-phase",
                "text":"<p>Versuche mit Mandrivia, OpenSuse, Ubuntu. Dualboots, Wine, MBR-Recoverys und vieles mehr.</p>",
                "asset":
                {
                    "media":"http://upload.wikimedia.org/wikipedia/commons/thumb/2/20/KDE35desktop.png/800px-KDE35desktop.png",
                    "credit":"Wikipedia",
                    "caption":""
                }
            },
                                                    {
                "startDate":"2006,6,29",
				"endDate":"2014,6,27",
                "headline":"Gentoo",
                "text":"<p>Als ich diese Distribution fand, wurde ich glücklich - man setzt sich mit dem System auseinander und bekommt einen 'massgeschneiderten Anzug', ein sehr performantes System!</p>",
                "asset":
                {
                    "media":"http://i-009.mannaz.cc/wp-content/uploads/2010/03/gentoo-transparent.png",
                    "credit":"http://i-009.mannaz.cc",
                    "caption":""
                }
            },
                                                                {
                "startDate":"2008,6,29",
				"endDate":"2014,6,27",
                "headline":"Kubuntu",
                "text":"<p>Durch Kubuntu lernte ich <a target='_blank' href='http://de.wikipedia.org/wiki/Advanced_Packaging_Tool'>APT</a> gut kennen. Das System ist schnell aufgesetzt und läuft stabil - ich evaluirte es als optimales Linux-Newbie-System, dem ich nur noch libdvdcss, Vlc und Firefox u.ä. hinzufügen muss. Es ist leicht zu supporten und wenn mal etwas auf meinem persönlichen System zickt (wenn ich mit Sabayon gespielt habe oder ein Update nicht fertig wurde oder ...), habe ich auch eine zweite Festplatte mit Kubuntu zur Hand.</p>",
                "asset":
                {
                    "media":"http://www.userlogos.org/files/logos/ingalls/kubuntu.png",
                    "credit":"http://www.userlogos.org/node/8425",
                    "caption":""
                }
            },
            {
                "startDate":"2007,8,13",
				"endDate":"2011,8,12",
                "headline":"Ausbildung Entwickler",
                "text":"<p>Eidgenössische Lehre als Applikationsentwickler bei <a target='_blank'<a target='_blank'href='http://puzzle.ch'>Puzzle</a>.</p>",
                "asset":
                {
                    "media":"http://blog.zhaw.ch/icclab/files/2012/09/puzzle_withslogan_rgb.jpg",
                    "credit":"http://puzzle.ch",
                    "caption":""
                }
            },
            {
                "startDate":"2008,8,12",
				"endDate":"2011,8,12",
                "headline":"Java/OOP",
                "text":"<p>Durch Puzzle kam ich zu Java und lernte dadurch OOP zu denken.</p>",
                "asset":
                {
                    "media":"http://swordrock.files.wordpress.com/2010/10/images.jpg",
                    "credit":"http://swordrock.wordpress.com",
                    "caption":""
                }
            },
                         {
                "startDate":"2008,10,26",
                "endDate":"2012,8,26",
                "headline":"Kauf des Openmoko/GTA02",
                "text":"<p>Mein erstes Smartphone - und erst noch für Hackerambitionierte. Meine ersten Smartphone-Systeme waren nicht Android, sondern Debian mit Xorg, Qt und Gtk. Android 1.5 lief zu unstabil, um es im Alltag zu nutzen.</p>",
                "asset":
                {
                    "media":"http://upload.wikimedia.org/wikipedia/commons/thumb/e/e7/Freerunner02.png/170px-Freerunner02.png",
                    "credit":"Wikipedia",
                    "caption":"GTA02/Freerunner/Openmoko"
                }
            },
             {
                "startDate":"2009,10,26",
                "headline":"Erste Begegnung mit Python",
                "text":"<p>Meine erste <a target='_blank' href='https://gist.github.com/skamster/10565527' target='_blank'>Python-Anwendung</a> für das Openmoko nutzte D-Bus und pyGtk. Sie entstand in einem Tag, da das SMS-Programm sich gerade nicht starten liess und ich meine Nachrichten lesen wollte. Funktionierte!</p>",
                "asset":
                {
                    "media":"https://www.youtube.com/watch?v=cNBtDstOTmA",
                    "credit":"Gource/Python/Youtube",
                    "caption":"Entwicklung des Python-Intepreters, visualisiert mit Gource"
                }
            },
            {
                "startDate":"2010,1,26",
				"endDate":"2011,5,27",
                "headline":"Entwicklung MultiSMS",
                "text":"<p><a target='_blank' href='http://puzzle.ch'>Puzzle</a> gab mir den Auftrag, eine Anwendung für das bestehende WebSMS-System (per Website) der Firma zu schreiben. Aufgrund meines Interesses durfte ich dies in Python mit pyKde umsetzen. Der Code wurde seit dieser Entwicklung aufgrund abwesender Festplatten und persönlichem Interesse aus den Augen gelassen und erst vor kurzem wieder \"ausgegraben\" (2014).</p>",
                "asset":
                {
                    "media":"http://cdn.staticportent.com/images/2011/07/python-madness.png",
                    "credit":"http://staticportent.com/",
                    "caption":""
                }
            },
            {
                "startDate":"2009,11,13",
                "endDate":"2012,2,27",
                "headline":"Entwicklung von Learncards-Web (PHP)",
                "text":"<p>Erste Entwicklungsphase des heutigen Peta-Projekts.</p>",
                "asset":
                {
                    "media":"http://php.baraja.cz/phpslon.jpg",
                    "credit":"http://php.baraja.cz/",
                    "caption":""
                }
            },
                        {
                "startDate":"2010,5,7",
                "headline":"1-Tag-Entwicklung eines Gästebuchs",
                "text":"<p>An einem Tag in der Berufsschule vergass ich, für die Schule ein <a target='_blank' href='https://github.com/skamster/death-guestbook'>Gästebuch</a> zu schreiben - also nahm ich den Aufbau von Learncards-Web und forkte diesen Code über Mittag. Das Resultat war ein <a target='_blank' href='https://github.com/skamster/death-guestbook'>Gästebuch</a> mit Benutzerverwaltung (mehrere Admins) und der Fähigkeit zu löschen und zu editieren, dies in einer MVC-Struktur. Die Anforderungen waren ein Login (mit statischem Administrator) und die Fähigkeit, Beiträge zu erstellen und als Admin zu löschen. Die Note 5.5 (nach CH-System) war das Resultat.</p>",
                "asset":
                {
                    "media":"http://ryaandavis.files.wordpress.com/2013/06/wpid-shutterstock_86404090.jpg",
                    "credit":"<a target='_blank' href='http://ryaandavis.wordpress.com/2013/06/11/6-useful-websites-to-learn-coding-as-a-beginner-to-expert/'>http://ryaandavis.wordpress.com</a>",
                    "caption":""
                }
            },
            {
                "startDate":"2013,5,25",
                "endDate":"2014,6,27",
                "headline":"Entwicklung jobManagement",
                "text":"<p>Dieses Projekt enstand zur Prüfung der Zahlungen von verschiedenen Temporärbüros. Die Entwicklungsphase vom jobManagement geht bis heute.</p>",
                "asset":
                {
                    "media":"images/jobManagementDataInit.png",
                    "credit":"",
                    "caption":""
                }
            },
                        {
                "startDate":"2014,5,29",
                "endDate":"2014,6,27",
                "headline":"Entwicklung tryToxic",
                "text":"<p>tryToxic enstand aus dem jobManagement-Projekt und ist das Resultat meines Interesses an <a target='_blank' href='http://tox.im'>tox/pyTox</a>. Die Entwicklungsphase von tryToxic geht bis heute.</p>",
                "asset":
                {
                    "media":"images/tryToxicInit.png",
                    "credit":"",
                    "caption":""
                }
            },
                                     {
                "startDate":"2014,4,10",
                "endDate":"2014,6,27",
                "headline":"skamster.github.io",
                "text":"<p>Entwicklung der Website, die Sie gerade sehen - 123+ Commits!</p>",
                "asset":
                {
                    "media":"http://www.thebubbleindex.com/public/images/content/HTML.jpg",
                    "credit":"",
                    "caption":""
                }
            },
            {
                "startDate": "2014,4,12",
                "endDate": "2014,6,27",
                "headline": "Peta",
                "text": "<p>Fork von learncards-web (für Sprachkärtchen) zu PhpMeta (Plugin- und Zugriffssystem)</p>",
                "asset": {
                    "media": "http://helloiamchris.com/wp-content/uploads/2012/06/phpCode-640x426.png",
                    "credit": "http://helloiamchris.com",
                    "caption": ""
                }
            },
			{
                "startDate":"2011,2,26",
                "endDate":"2011,7,26",
                "headline":"Röck'n'Röll-Krew",
                "text":"Arbeit als Stagehand. Boxen verschieben, Teppiche legen, Lichter aufhängen...",
                "asset":
                {
                    "media":"images/oldjob3.jpg",
                    "credit":"",
                    "caption":"Muse, Stade de Suisse, Bern 2013"
                }
            },
			{
                "startDate":"2012,7,2",
                "endDate":"2013,8,2",
                "headline":"Creative Personal",
                "text":"Arbeit in der Gerüst- und Stahlbaumontage. Klettern, Höhenarbeit und lange Tage - ein bezahltes Fitnesscenter.",
                "asset":
                {
                    "media":"./images/oldjob2.jpg",
                    "credit":"",
                    "caption":"Paléo, Nyon 2012"
                }
            }
        ]
    }
}